absl-py==1.1.0
asgiref==3.5.2
astunparse==1.6.3
blis==0.7.8
cachetools==5.2.0
catalogue==2.0.7
certifi==2022.6.15
charset-normalizer==2.1.0
click==8.1.3
cymem==2.0.6
Django==4.0.5
django-cors-headers==3.13.0
djangorestframework==3.13.1
djangorestframework-simplejwt==5.2.0
flatbuffers==1.12
gast==0.4.0
google-auth==2.9.0
google-auth-oauthlib==0.4.6
google-pasta==0.2.0
grpcio==1.47.0
h5py==3.7.0
idna==3.3
Jinja2==3.1.2
keras==2.9.0
keras-models==0.0.7
Keras-Preprocessing==1.1.2
langcodes==3.3.0
libclang==14.0.1
Markdown==3.3.7
MarkupSafe==2.1.1
murmurhash==1.0.7
numpy==1.23.0
oauthlib==3.2.0
opencv-python==4.6.0.66
opt-einsum==3.3.0
packaging==21.3
pathlib==1.0.1
pathy==0.6.2
Pillow==9.1.1
preshed==3.0.6
protobuf==3.19.4
psycopg2==2.9.3
pyasn1==0.4.8
pyasn1-modules==0.2.8
pydantic==1.8.2
PyJWT==2.4.0
pyparsing==3.0.9
pytz==2022.1
requests==2.28.1
requests-oauthlib==1.3.1
rsa==4.8
six==1.16.0
smart-open==5.2.1
smbus==1.1.post2
spacy==3.3.1
spacy-legacy==3.0.9
spacy-loggers==1.0.2
sqlparse==0.4.2
srsly==2.4.3
tensorboard==2.9.1
tensorboard-data-server==0.6.1
tensorboard-plugin-wit==1.8.1
tensorflow==2.9.1
tensorflow-estimator==2.9.0
tensorflow-io-gcs-filesystem==0.26.0
termcolor==1.1.0
thinc==8.0.17
tqdm==4.64.0
typer==0.4.1
typing_extensions==4.2.0
urllib3==1.26.9
wasabi==0.9.1
Werkzeug==2.1.2
wrapt==1.14.1
